[
    {
        "name": "Macbook Pro",
        "price": "43000",
        "image": "https://store.storeimages.cdn-apple.com/8756/as-images.apple.com/is/mbp-spacegray-select-202011?wid=1280&hei=1190&fmt=jpeg&qlt=80&.v=1603406905000"
    },
    {
        "name": "iPhone 12",
        "price": "27000",
        "image": "https://store.storeimages.cdn-apple.com/8756/as-images.apple.com/is/iphone-12-pro-family-hero?wid=940&hei=1112&fmt=jpeg&qlt=80&op_usm=0.5,0.5&.v=1604021663000"
    },
    {
        "name": "Airpod Max",
        "price": "19900",
        "image": "https://store.storeimages.cdn-apple.com/8756/as-images.apple.com/is/airpods-max-hero-select-202011_FMT_WHH?wid=750&hei=556&fmt=jpeg&qlt=80&op_usm=0.5%2C0.5&.v=1603842301000"
    },
    {
        "name": "iPad Air",
        "price": "19900",
        "image": "https://store.storeimages.cdn-apple.com/8756/as-images.apple.com/is/ipad-air-select-wifi-blue-202009_FMT_WHH?wid=1000&hei=1000&fmt=jpeg&qlt=95&op_usm=0.5,0.5&.v=1599672435000"
    }
]